{
    "iCatalogItem": {
        "catalogItemBase": [
            {
                "name": "ANUAL",
                "id": "A"
            },
            {
                "name": "LIBRE",
                "id": "L"
            }
        ]
    }
}
