POST https://150.250.220.36:18500/corporateCatalogs/V03/TP/listInsuranceInformationCatalogs

POST data:
{
	"header":{
		"aapType":"45555F6",
		"dateRequest":"2016-08-06 12:33:27.104",
		"channel":"4",
		"subChannel":"71",
		"branchOffice":"ASD",
		"managementUnit":"ASDT0004",
		"user":"CARLOS",
		"idSession":"3232-3232",
		"idRequest":"1212-121212-12121-212",
		"dateConsumerInvocation":"2016-08-06 12:33:27.1"
	},
	
  "productCode": "2010",
	"iRequest": {
		"productPlan": {
		"planCode": "005",
		"planReview": "001",
		"bouquetCode": "AUAR"
  		}
	}
}

[no cookies]
