{
    "iCatalogItem": {
        "catalogItemBase": [
            {
                "name": "AMPLIO",
                "id": "000"
            },
            {
                "name": "AMPLIO PLUS",
                "id": "001"
            },
            {
                "name": "ESENCIAL",
                "id": "008"
            },
            {
                "name": "BÁSICO",
                "id": "007"
            }
        ]
    }
}
