{
    "iCatalogItem": {
        "catalogItemBase": [
            {
                "name": "ADICIONAL",
                "id": "AD"
            },
            {
                "name": "ADICIONAL PRINCIPAL",
                "id": "AX"
            },
            {
                "name": "PRINCIPAL",
                "id": "PR"
            }
        ]
    }
}
